…
``` r
library(readxl)
data("instacart")
data("brfss_smart2010")
```

## count the aisles and select the aisles that are the most items ordered from

``` r
instacart %>%
  count(aisle) 
```

    ## # A tibble: 134 x 2
    ##    aisle                      n
    ##    <chr>                  <int>
    ##  1 air fresheners candles  1067
    ##  2 asian foods             7007
    ##  3 baby accessories         306
    ##  4 baby bath body care      328
    ##  5 baby food formula      13198
    ##  6 bakery desserts         1501
    ##  7 baking ingredients     13088
    ##  8 baking supplies decor   1094
    ##  9 beauty                   287
    ## 10 beers coolers           1839
    ## # ... with 124 more rows

``` r
instacart %>%
  group_by(aisle) %>%
  summarize(n_obs = n()) %>% ## n_obs stands for the numbers of aisle
  arrange(desc(n_obs)) 
```

    ## # A tibble: 134 x 2
    ##    aisle                          n_obs
    ##    <chr>                          <int>
    ##  1 fresh vegetables              150609
    ##  2 fresh fruits                  150473
    ##  3 packaged vegetables fruits     78493
    ##  4 yogurt                         55240
    ##  5 packaged cheese                41699
    ##  6 water seltzer sparkling water  36617
    ##  7 milk                           32644
    ##  8 chips pretzels                 31269
    ##  9 soy lactosefree                26240
    ## 10 bread                          23635
    ## # ... with 124 more rows
…
``` r
brfss_excellect =
  brfss_df %>%
  filter(response == "Excellent") %>%
  group_by(state, year) %>%
  summarise(mean_data_value = mean(data_value)) 
```

    ## `summarise()` has grouped output by 'state'. You can override using the `.groups` argument.

``` r
brfss_excellect
```

    ## # A tibble: 443 x 3
    ## # Groups:   state [51]
    ##    state  year mean_data_value
    ##    <chr> <int>           <dbl>
    ##  1 AK     2002            27.9
    ##  2 AK     2003            24.8
    ##  3 AK     2004            23.0
    ##  4 AK     2005            23.8
    ##  5 AK     2007            23.5
    ##  6 AK     2008            20.6
    ##  7 AK     2009            23.2
    ##  8 AL     2002            18.5
    ##  9 AL     2003            19.5
    ## 10 AL     2004            20  
    ## # ... with 433 more rows
…
    ## -- Column specification --------------------------------------------------------
    ## Delimiter: ","
    ## chr    (1): day
    ## dbl (1442): week, day_id, activity.1, activity.2, activity.3, activity.4, ac...

    ## 
    ## i Use `spec()` to retrieve the full column specification for this data.
    ## i Specify the column types or set `show_col_types = FALSE` to quiet this message.

``` r
accelerometer_df           
```

    ## # A tibble: 50,400 x 6
    ##     week day_id day    activity_minute activity_count weekday_or_weekend
    ##    <dbl>  <dbl> <chr>  <chr>                    <dbl> <chr>             
    ##  1     1      1 Friday 1                         88.4 weekday           
    ##  2     1      1 Friday 2                         82.2 weekday           
    ##  3     1      1 Friday 3                         64.4 weekday           
    ##  4     1      1 Friday 4                         70.0 weekday           
    ##  5     1      1 Friday 5                         75.0 weekday           
    ##  6     1      1 Friday 6                         66.3 weekday           
    ##  7     1      1 Friday 7                         53.8 weekday           
    ##  8     1      1 Friday 8                         47.8 weekday           
    ##  9     1      1 Friday 9                         55.5 weekday           
    ## 10     1      1 Friday 10                        43.0 weekday           
    ## # ... with 50,390 more rows
…
